REGISTER_MUTATOR(vore, cvar("g_vore"))
{
	MUTATOR_ONADD
	{
		VoreMain_OnAdd();
	}

	MUTATOR_ONREMOVE
	{
		VoreMain_OnRemove();
	}
}

MUTATOR_HOOKFUNCTION(vore, BuildMutatorsString)
{
	M_ARGV(0, string) = strcat(M_ARGV(0, string), ":Vore");
}

MUTATOR_HOOKFUNCTION(vore, BuildMutatorsPrettyString)
{
	M_ARGV(0, string) = strcat(M_ARGV(0, string), ", Vore");
}

MUTATOR_HOOKFUNCTION(vore, GetPressedKeys)
{
	entity player = M_ARGV(0, entity);
	VoreBot_GetPressedKeys(player);
	VoreMain_GetPressedKeys(player);
	return false;
}

MUTATOR_HOOKFUNCTION(vore, FixPlayermodel)
{
	entity player = M_ARGV(2, entity);
	int player_skin = M_ARGV(1, int);
	string player_model = M_ARGV(0, string);
	string player_model_new = VoreMain_FixPlayermodel_Model(player, player_model, player_skin);
	if(player_model_new)
		M_ARGV(0, string) = player_model_new; // this.playermodel
	if(!player_skin)
		// TODO: Does this override sv_defaultplayerskin if it's 0?
		M_ARGV(1, int) = stof(player.playerskin); // this.playerskin
	return false;
}

MUTATOR_HOOKFUNCTION(vore, PlayerPhysics_UpdateStats)
{
	entity player = M_ARGV(0, entity);
	float offset = VoreMain_PlayerPhysics_UpdateStats_Offset(player);
	STAT(MOVEVARS_HIGHSPEED, player) *= offset;
	return false;
}

MUTATOR_HOOKFUNCTION(vore, PlayerJump)
{
	entity player = M_ARGV(0, entity);
	M_ARGV(1, float) *= VoreMain_PlayerJump_Offset(player);
	return false;
}

MUTATOR_HOOKFUNCTION(vore, PlayerDamage_SplitHealthArmor)
{
	entity player_attacker = M_ARGV(1, entity);
	entity player_target = M_ARGV(2, entity);
	vector player_force = M_ARGV(3, vector);
	float player_damage_take = M_ARGV(4, float); // health damage
	float player_damage_save = M_ARGV(5, float); // armor damage
	float player_deathtype = M_ARGV(6, float);
	float player_damage = M_ARGV(7, float);
	vector newdamage = VoreMain_PlayerDamage_SplitHealthArmor_Damage(player_attacker, player_target, player_force, player_damage_take, player_damage_save, player_deathtype, player_damage);
	M_ARGV(4, float) = newdamage.x; // health damage
	M_ARGV(5, float) = newdamage.y; // armor damage
	return false;
}

MUTATOR_HOOKFUNCTION(vore, PlayerDies)
{
	entity player = M_ARGV(0, entity);
	VoreMain_PlayerDies(player);
	return false;
}

MUTATOR_HOOKFUNCTION(vore, PlayerSpawn)
{
	entity player = M_ARGV(0, entity);
	VoreMain_PlayerSpawn(player);
	return false;
}

MUTATOR_HOOKFUNCTION(vore, CopyBody)
{
	entity player = M_ARGV(0, entity);
	entity body = M_ARGV(1, entity);
	VoreMain_CopyBody(player, body);
	return false;
}

MUTATOR_HOOKFUNCTION(vore, SpectateCopy)
{
	entity spectatee = M_ARGV(0, entity);
	entity client = M_ARGV(1, entity);
	VoreMain_SpectateCopy(client, spectatee);
	return false;
}

MUTATOR_HOOKFUNCTION(vore, PutClientInServer)
{
	entity player = M_ARGV(0, entity);
	VoreMain_PutClientInServer(player);
	return false;
}

MUTATOR_HOOKFUNCTION(vore, MakePlayerObserver)
{
	entity player = M_ARGV(0, entity);
	VoreMain_MakePlayerObserver(player);
	return false;
}

MUTATOR_HOOKFUNCTION(vore, ClientConnect)
{
	entity player = M_ARGV(0, entity);
	VoreBot_ClientConnect(player);
	return false;
}

MUTATOR_HOOKFUNCTION(vore, ClientDisconnect)
{
	entity player = M_ARGV(0, entity);
	VoreMain_ClientDisconnect(player);
	return false;
}

MUTATOR_HOOKFUNCTION(vore, ForbidWeaponUse)
{
	entity player = M_ARGV(0, entity);
	return VoreMain_ForbidWeaponUse_Forbid(player);
}

MUTATOR_HOOKFUNCTION(vore, ForbidThrowCurrentWeapon)
{
	entity player = M_ARGV(0, entity);
	return VoreMain_ForbidThrowCurrentWeapon_Forbid(player);
}

MUTATOR_HOOKFUNCTION(vore, VehicleEnter)
{
	entity player = M_ARGV(0, entity);
	entity vehicle = M_ARGV(0, entity);
	VoreMain_VehicleEnter(player, vehicle);
}

MUTATOR_HOOKFUNCTION(vore, VehicleExit)
{
	entity player = M_ARGV(0, entity);
	entity vehicle = M_ARGV(0, entity);
	VoreMain_VehicleExit(player, vehicle);
}

MUTATOR_HOOKFUNCTION(vore, BotShouldAttack)
{
	entity player = M_ARGV(0, entity);
	entity target = M_ARGV(1, entity);
	return VoreBot_BotShouldAttack_Attack(player, target);
}

MUTATOR_HOOKFUNCTION(vore, HavocBot_Aim)
{
	entity player = M_ARGV(0, entity);
	return VoreBot_HavocBot_Aim(player);
}

MUTATOR_HOOKFUNCTION(vore, HavocBot_ChooseRole)
{
	entity player = M_ARGV(0, entity);
	VoreBot_HavocBot_ChooseRole(player);
	return true;
}
